{
  "project_info": {
    "project_number": "368767436570",
    "firebase_url": "https://dratoo-services.firebaseio.com",
    "project_id": "dratoo-services",
    "storage_bucket": "dratoo-services.appspot.com"
  },
  "client": [
    {
      "client_info": {
        "mobilesdk_app_id": "1:368767436570:android:36032df3b3d287c8",
        "android_client_info": {
          "package_name": "com.dratoo_user"
        }
      },
      "oauth_client": [
        {
          "client_id": "368767436570-a1a4dcdm1d6gm13k9u026ns698iack16.apps.googleusercontent.com",
          "client_type": 3
        }
      ],
      "api_key": [
        {
          "current_key": "AIzaSyCHL6pJaszb7vtaMGrcZJRCu4ufi3ksMNM"
        }
      ],
      "services": {
        "appinvite_service": {
          "other_platform_oauth_client": [
            {
              "client_id": "368767436570-a1a4dcdm1d6gm13k9u026ns698iack16.apps.googleusercontent.com",
              "client_type": 3
            }
          ]
        }
      }
    }
  ],
  "configuration_version": "1"
}